"","variable",".y.","group1","group2","n1","n2","statistic","p","p.adj"
"1","Thr","value","N","Y",51,24,317,0.000823,0.03608
"2","Succinate","value","N","Y",53,24,368,0.00326,0.03608
"3","Adenine","value","N","Y",53,24,371,0.00363,0.03608
"4","Gln","value","N","Y",53,24,374.5,0.0041,0.03608
"5","Lactate","value","N","Y",53,24,374.5,0.0041,0.03608
"6","Glucose","value","N","Y",53,24,384.5,0.00577,0.0423133333333333
"7","Asp","value","N","Y",53,24,414,0.0148,0.0869
"8","Lys","value","N","Y",53,24,416,0.0158,0.0869
"9","Met","value","N","Y",53,24,437,0.029,0.128
"10","Creatine","value","N","Y",53,24,438,0.0298,0.128
"11","Glu","value","N","Y",53,24,440.5,0.032,0.128
"12","Arg_and_Lys","value","N","Y",53,24,447,0.0382,0.140066666666667
"13","Phe","value","N","Y",53,24,467,0.0638,0.177811764705882
"14","PC2","value","N","Y",53,24,467,0.0639,0.177811764705882
"15","PC3","value","N","Y",53,24,467,0.0639,0.177811764705882
"16","U.7.61","value","N","Y",51,22,408.5,0.0676,0.177811764705882
"17","B_hydroxybutyrate","value","N","Y",53,24,470,0.0687,0.177811764705882
"18","PC1","value","N","Y",53,24,475.5,0.0784,0.183873684210526
"19","Inosine.2","value","N","Y",53,24,476,0.0794,0.183873684210526
"20","Glutathione","value","N","Y",52,24,470,0.0863,0.18986
"21","Tyr","value","N","Y",53,24,482,0.0914,0.191504761904762
"22","Ala","value","N","Y",53,24,485,0.0979,0.1958
"23","Uracil","value","N","Y",52,22,436,0.109,0.20064
"24","UFAs","value","N","Y",53,23,751,0.111,0.20064
"25","Ascorbate","value","N","Y",50,24,462.5,0.114,0.20064
"26","Leu","value","N","Y",53,24,513,0.178,0.297379310344828
"27","Inosine.1","value","N","Y",53,24,515,0.185,0.297379310344828
"28","Inositol","value","N","Y",53,24,516.5,0.191,0.297379310344828
"29","Formate","value","N","Y",50,23,465.5,0.196,0.297379310344828
"30","Acetate","value","N","Y",53,24,539.5,0.291,0.4268
"31","U.1.17","value","N","Y",53,24,543.5,0.312,0.442838709677419
"32","Uridine","value","N","Y",53,23,524.5,0.339,0.454666666666667
"33","Val","value","N","Y",53,24,549,0.341,0.454666666666667
"34","Ile","value","N","Y",53,24,552,0.358,0.463294117647059
"35","U.1.14","value","N","Y",53,24,554.5,0.373,0.468914285714286
"36","glucose","value","N","Y",53,23,682,0.416,0.508444444444444
"37","Uridine.1","value","N","Y",53,24,564,0.432,0.51372972972973
"38","Glycerol","value","N","Y",53,24,690.5,0.553,0.640315789473684
"39","Lipids","value","N","Y",53,24,688,0.571,0.644205128205128
"40","Asn","value","N","Y",53,24,596.5,0.668,0.7348
"41","Inosine","value","N","Y",51,24,585,0.763,0.818829268292683
"42","Ethanolamine","value","N","Y",53,24,644,0.934,0.978476190476191
"43","Scyllo.inositol","value","N","Y",53,24,641,0.961,0.983348837209302
"44","Glycogen","value","N","Y",52,24,625.5,0.991,0.991
