"","Genus",".y.","n","statistic","df","p","method","p.adj"
"1","Enterococcus","Abundance",59,14.9572911647267,1,0.00011,"Kruskal-Wallis",0.02266
"2","Blautia","Abundance",59,11.9793570983042,1,0.000538,"Kruskal-Wallis",0.0408395
"3","Parabacteroides","Abundance",59,11.3602109440267,1,0.00075,"Kruskal-Wallis",0.0408395
"4","Faecalibacterium","Abundance",59,11.2581895463613,1,0.000793,"Kruskal-Wallis",0.0408395
"5","Lachnospiraceae_NK4A136_group","Abundance",59,9.95528378637319,1,0.0016,"Kruskal-Wallis",0.06592
"6","Morganella","Abundance",59,9.10693548387112,1,0.00255,"Kruskal-Wallis",0.08755
"7","Roseburia","Abundance",59,8.47321518759019,1,0.0036,"Kruskal-Wallis",0.105942857142857
"8","Bacteroides","Abundance",59,7.67346648785005,1,0.0056,"Kruskal-Wallis",0.1442
"9","Subdoligranulum","Abundance",59,6.90173633637024,1,0.00861,"Kruskal-Wallis",0.150469565217391
"10","Ralstonia","Abundance",59,6.77709320932095,1,0.00923,"Kruskal-Wallis",0.150469565217391
"11","Alistipes","Abundance",59,6.58924585601599,1,0.0103,"Kruskal-Wallis",0.150469565217391
"12","Barnesiella","Abundance",59,6.58924585601599,1,0.0103,"Kruskal-Wallis",0.150469565217391
"13","Tyzzerella_4","Abundance",59,6.52951713395633,1,0.0106,"Kruskal-Wallis",0.150469565217391
"14","Anaerostipes","Abundance",59,6.21889412476643,1,0.0126,"Kruskal-Wallis",0.150469565217391
"15","Fusicatenibacter","Abundance",59,6.04583544034421,1,0.0139,"Kruskal-Wallis",0.150469565217391
"16","Lachnospira","Abundance",59,6.00451203208557,1,0.0143,"Kruskal-Wallis",0.150469565217391
"17","Oscillibacter","Abundance",59,6.00451203208557,1,0.0143,"Kruskal-Wallis",0.150469565217391
"18","Raoultella","Abundance",59,5.96781609195409,1,0.0146,"Kruskal-Wallis",0.150469565217391
"19","Terrisporobacter","Abundance",59,5.96781609195409,1,0.0146,"Kruskal-Wallis",0.150469565217391
"20","Citrobacter","Abundance",59,5.7432167832168,1,0.0166,"Kruskal-Wallis",0.150469565217391
"21","Erysipelotrichaceae_UCG-003","Abundance",59,5.7234497667539,1,0.0167,"Kruskal-Wallis",0.150469565217391
"22","Escherichia/Shigella","Abundance",59,5.72984158569237,1,0.0167,"Kruskal-Wallis",0.150469565217391
"23","Phascolarctobacterium","Abundance",59,5.71609167546972,1,0.0168,"Kruskal-Wallis",0.150469565217391
"24","Arcobacter","Abundance",59,5.55157629824156,1,0.0185,"Kruskal-Wallis",0.158791666666667
"25","Lachnoclostridium","Abundance",59,5.03250450837109,1,0.0249,"Kruskal-Wallis",0.189662068965517
"26","Odoribacter","Abundance",59,5.02820582071924,1,0.0249,"Kruskal-Wallis",0.189662068965517
"27","Klebsiella","Abundance",59,5.004690958836,1,0.0253,"Kruskal-Wallis",0.189662068965517
"28","Ruminococcaceae_UCG-005","Abundance",59,4.963043338132,1,0.0259,"Kruskal-Wallis",0.189662068965517
"29","Lactobacillus","Abundance",59,4.91129176703111,1,0.0267,"Kruskal-Wallis",0.189662068965517
"30","Veillonella","Abundance",59,4.68943405185385,1,0.0303,"Kruskal-Wallis",0.20806
"31","Clostridium_sensu_stricto_1","Abundance",59,3.98970899141901,1,0.0458,"Kruskal-Wallis",0.283822222222222
"32","Ruminiclostridium_5","Abundance",59,3.96835123504898,1,0.0464,"Kruskal-Wallis",0.283822222222222
"33","Cutibacterium","Abundance",59,3.87374565555499,1,0.049,"Kruskal-Wallis",0.283822222222222
"34","Ruminococcus_2","Abundance",59,3.57329736440033,1,0.0587,"Kruskal-Wallis",0.283822222222222
"35","Ruminococcaceae_UCG-002","Abundance",59,3.56649238263822,1,0.059,"Kruskal-Wallis",0.283822222222222
"36","Eisenbergiella","Abundance",59,3.52720655604193,1,0.0604,"Kruskal-Wallis",0.283822222222222
"37","Intestinibacter","Abundance",59,3.52720655604193,1,0.0604,"Kruskal-Wallis",0.283822222222222
"38","Lachnospiraceae_UCG-001","Abundance",59,3.52720655604193,1,0.0604,"Kruskal-Wallis",0.283822222222222
"39","Butyricicoccus","Abundance",59,3.45319339738851,1,0.0631,"Kruskal-Wallis",0.283822222222222
"40","Negativibacillus","Abundance",59,3.39901674306083,1,0.0652,"Kruskal-Wallis",0.283822222222222
"41","Dorea","Abundance",59,3.31194642137774,1,0.0688,"Kruskal-Wallis",0.283822222222222
"42","Tyzzerella","Abundance",59,3.2411046954031,1,0.0718,"Kruskal-Wallis",0.283822222222222
"43","Butyricimonas","Abundance",59,3.08010801080109,1,0.0793,"Kruskal-Wallis",0.283822222222222
"44","Coprobacter","Abundance",59,3.08010801080109,1,0.0793,"Kruskal-Wallis",0.283822222222222
"45","Paraprevotella","Abundance",59,3.08010801080109,1,0.0793,"Kruskal-Wallis",0.283822222222222
"46","Ruminococcaceae_NK4A214_group","Abundance",59,3.08010801080109,1,0.0793,"Kruskal-Wallis",0.283822222222222
"47","Ruminococcaceae_UCG-004","Abundance",59,3.08010801080109,1,0.0793,"Kruskal-Wallis",0.283822222222222
"48","Pseudoflavonifractor","Abundance",59,2.93999725073301,1,0.0864,"Kruskal-Wallis",0.283822222222222
"49","Abiotrophia","Abundance",59,2.93333333333294,1,0.0868,"Kruskal-Wallis",0.283822222222222
"50","Achromobacter","Abundance",59,2.93333333333294,1,0.0868,"Kruskal-Wallis",0.283822222222222
"51","Anaerofustis","Abundance",59,2.93333333333294,1,0.0868,"Kruskal-Wallis",0.283822222222222
"52","Brevibacterium","Abundance",59,2.93333333333294,1,0.0868,"Kruskal-Wallis",0.283822222222222
"53","Clostridium_sensu_stricto_2","Abundance",59,2.93333333333294,1,0.0868,"Kruskal-Wallis",0.283822222222222
"54","Cytophaga","Abundance",59,2.93333333333294,1,0.0868,"Kruskal-Wallis",0.283822222222222
"55","Helicobacter","Abundance",59,2.93333333333294,1,0.0868,"Kruskal-Wallis",0.283822222222222
"56","Lautropia","Abundance",59,2.93333333333294,1,0.0868,"Kruskal-Wallis",0.283822222222222
"57","Moraxella","Abundance",59,2.93333333333294,1,0.0868,"Kruskal-Wallis",0.283822222222222
"58","Novosphingobium","Abundance",59,2.93333333333294,1,0.0868,"Kruskal-Wallis",0.283822222222222
"59","Pediococcus","Abundance",59,2.93333333333294,1,0.0868,"Kruskal-Wallis",0.283822222222222
"60","Prevotella_7","Abundance",59,2.93333333333294,1,0.0868,"Kruskal-Wallis",0.283822222222222
"61","Ramlibacter","Abundance",59,2.93333333333294,1,0.0868,"Kruskal-Wallis",0.283822222222222
"62","Rickettsiella","Abundance",59,2.93333333333294,1,0.0868,"Kruskal-Wallis",0.283822222222222
"63","Yonghaparkia","Abundance",59,2.93333333333294,1,0.0868,"Kruskal-Wallis",0.283822222222222
"64","Flavobacterium","Abundance",59,2.78528806207235,1,0.0951,"Kruskal-Wallis",0.306103125
"65","Ruminococcaceae_UCG-013","Abundance",59,2.66901441739546,1,0.102,"Kruskal-Wallis",0.315058823529412
"66","Ruminococcaceae_UCG-003","Abundance",59,2.6631201770552,1,0.103,"Kruskal-Wallis",0.315058823529412
"67","Ruminiclostridium_6","Abundance",59,2.64790413866292,1,0.104,"Kruskal-Wallis",0.315058823529412
"68","UBA1819","Abundance",59,2.64790413866292,1,0.104,"Kruskal-Wallis",0.315058823529412
"69","Dialister","Abundance",59,2.4333223936112,1,0.119,"Kruskal-Wallis",0.355275362318841
"70","Sutterella","Abundance",59,2.39805097040866,1,0.121,"Kruskal-Wallis",0.356085714285714
"71","Acidaminococcus","Abundance",59,2.23010156793073,1,0.135,"Kruskal-Wallis",0.39169014084507
"72","Erysipelatoclostridium","Abundance",59,2.11316877308306,1,0.146,"Kruskal-Wallis",0.417722222222222
"73","Acinetobacter","Abundance",59,2.08752923644835,1,0.149,"Kruskal-Wallis",0.420351351351351
"74","Collinsella","Abundance",59,2.05870914769374,1,0.151,"Kruskal-Wallis",0.420351351351351
"75","Haemophilus","Abundance",59,1.91553688647999,1,0.166,"Kruskal-Wallis",0.455946666666667
"76","Akkermansia","Abundance",59,1.82622246257179,1,0.177,"Kruskal-Wallis",0.471225
"77","Marvinbryantia","Abundance",59,1.82622246257179,1,0.177,"Kruskal-Wallis",0.471225
"78","Christensenellaceae_R-7_group","Abundance",59,1.7732039961862,1,0.183,"Kruskal-Wallis",0.471225
"79","Coprococcus_1","Abundance",59,1.77172718195438,1,0.183,"Kruskal-Wallis",0.471225
"80","Lachnospiraceae_UCG-004","Abundance",59,1.7732039961862,1,0.183,"Kruskal-Wallis",0.471225
"81","Prevotella_9","Abundance",59,1.63418480288526,1,0.201,"Kruskal-Wallis",0.511185185185185
"82","Agathobacter","Abundance",59,1.57819341382518,1,0.209,"Kruskal-Wallis",0.525048780487805
"83","Alloprevotella","Abundance",59,1.43580419580424,1,0.231,"Kruskal-Wallis",0.546965517241379
"84","Finegoldia","Abundance",59,1.43580419580424,1,0.231,"Kruskal-Wallis",0.546965517241379
"85","Fournierella","Abundance",59,1.43580419580424,1,0.231,"Kruskal-Wallis",0.546965517241379
"86","GCA-900066755","Abundance",59,1.43580419580424,1,0.231,"Kruskal-Wallis",0.546965517241379
"87","Intestinimonas","Abundance",59,1.43580419580424,1,0.231,"Kruskal-Wallis",0.546965517241379
"88","Ruminococcus_1","Abundance",59,1.31146167557933,1,0.252,"Kruskal-Wallis",0.589909090909091
"89","Coprococcus_3","Abundance",59,1.19230236703559,1,0.275,"Kruskal-Wallis",0.61910752688172
"90","Coprococcus_2","Abundance",59,1.05839901026395,1,0.304,"Kruskal-Wallis",0.61910752688172
"91","Family_XIII_AD3011_group","Abundance",59,1.05839901026395,1,0.304,"Kruskal-Wallis",0.61910752688172
"92","Megasphaera","Abundance",59,1.05839901026395,1,0.304,"Kruskal-Wallis",0.61910752688172
"93","Holdemania","Abundance",59,0.980354239631034,1,0.322,"Kruskal-Wallis",0.61910752688172
"94","Lachnospiraceae_ND3007_group","Abundance",59,0.871403106697249,1,0.351,"Kruskal-Wallis",0.61910752688172
"95","Parasutterella","Abundance",59,0.790976122783926,1,0.374,"Kruskal-Wallis",0.61910752688172
"96","Ruminiclostridium_9","Abundance",59,0.790976122783926,1,0.374,"Kruskal-Wallis",0.61910752688172
"97","Oscillospira","Abundance",59,0.770027002700292,1,0.38,"Kruskal-Wallis",0.61910752688172
"98","Acidovorax","Abundance",59,0.717177852412746,1,0.397,"Kruskal-Wallis",0.61910752688172
"99","Actinobacillus","Abundance",59,0.693573667711546,1,0.405,"Kruskal-Wallis",0.61910752688172
"100","Aggregatibacter","Abundance",59,0.693573667711546,1,0.405,"Kruskal-Wallis",0.61910752688172
"101","Allisonella","Abundance",59,0.693573667711546,1,0.405,"Kruskal-Wallis",0.61910752688172
"102","Anaerotruncus","Abundance",59,0.693573667711546,1,0.405,"Kruskal-Wallis",0.61910752688172
"103","Atopobium","Abundance",59,0.693573667711546,1,0.405,"Kruskal-Wallis",0.61910752688172
"104","Butyrivibrio","Abundance",59,0.693573667711546,1,0.405,"Kruskal-Wallis",0.61910752688172
"105","Catenibacterium","Abundance",59,0.693573667711546,1,0.405,"Kruskal-Wallis",0.61910752688172
"106","Cloacibacterium","Abundance",59,0.693573667711546,1,0.405,"Kruskal-Wallis",0.61910752688172
"107","Clostridioides","Abundance",59,0.693573667711546,1,0.405,"Kruskal-Wallis",0.61910752688172
"108","Family_XIII_UCG-001","Abundance",59,0.693573667711546,1,0.405,"Kruskal-Wallis",0.61910752688172
"109","Holdemanella","Abundance",59,0.693573667711546,1,0.405,"Kruskal-Wallis",0.61910752688172
"110","Lachnospiraceae_FCS020_group","Abundance",59,0.693573667711546,1,0.405,"Kruskal-Wallis",0.61910752688172
"111","Lachnospiraceae_UCG-008","Abundance",59,0.693573667711546,1,0.405,"Kruskal-Wallis",0.61910752688172
"112","Lawsonella","Abundance",59,0.693573667711546,1,0.405,"Kruskal-Wallis",0.61910752688172
"113","Merdibacter","Abundance",59,0.693573667711546,1,0.405,"Kruskal-Wallis",0.61910752688172
"114","Mycobacterium","Abundance",59,0.693573667711546,1,0.405,"Kruskal-Wallis",0.61910752688172
"115","Oribacterium","Abundance",59,0.693573667711546,1,0.405,"Kruskal-Wallis",0.61910752688172
"116","Prevotella","Abundance",59,0.693573667711546,1,0.405,"Kruskal-Wallis",0.61910752688172
"117","Ruminococcaceae_UCG-010","Abundance",59,0.693573667711546,1,0.405,"Kruskal-Wallis",0.61910752688172
"118","Sulfurovum","Abundance",59,0.693573667711546,1,0.405,"Kruskal-Wallis",0.61910752688172
"119","Tyzzerella_3","Abundance",59,0.693573667711546,1,0.405,"Kruskal-Wallis",0.61910752688172
"120","UC5-1-2E3","Abundance",59,0.693573667711546,1,0.405,"Kruskal-Wallis",0.61910752688172
"121","Streptococcus","Abundance",59,0.656875786967976,1,0.418,"Kruskal-Wallis",0.61910752688172
"122","Comamonas","Abundance",59,0.646342261829633,1,0.421,"Kruskal-Wallis",0.61910752688172
"123","Lachnospiraceae_UCG-010","Abundance",59,0.604179728317688,1,0.437,"Kruskal-Wallis",0.61910752688172
"124","Paraclostridium","Abundance",59,0.604179728317688,1,0.437,"Kruskal-Wallis",0.61910752688172
"125","Peptostreptococcus","Abundance",59,0.604179728317688,1,0.437,"Kruskal-Wallis",0.61910752688172
"126","Sellimonas","Abundance",59,0.604179728317688,1,0.437,"Kruskal-Wallis",0.61910752688172
"127","Sphingomonas","Abundance",59,0.604179728317688,1,0.437,"Kruskal-Wallis",0.61910752688172
"128","Yokenella","Abundance",59,0.604179728317688,1,0.437,"Kruskal-Wallis",0.61910752688172
"129","Pseudomonas","Abundance",59,0.563784323514701,1,0.453,"Kruskal-Wallis",0.61910752688172
"130","Parvimonas","Abundance",59,0.545756437259368,1,0.46,"Kruskal-Wallis",0.61910752688172
"131","Fusobacterium","Abundance",59,0.426560961320332,1,0.514,"Kruskal-Wallis",0.61910752688172
"132","Ruminococcaceae_UCG-014","Abundance",59,0.408546200721331,1,0.523,"Kruskal-Wallis",0.61910752688172
"133","Dielma","Abundance",59,0.384276337583742,1,0.535,"Kruskal-Wallis",0.61910752688172
"134","Diaphorobacter","Abundance",59,0.374687072290605,1,0.54,"Kruskal-Wallis",0.61910752688172
"135","Gemella","Abundance",59,0.356816250869016,1,0.55,"Kruskal-Wallis",0.61910752688172
"136","Hungatella","Abundance",59,0.356816250869016,1,0.55,"Kruskal-Wallis",0.61910752688172
"137","Acetitomaculum","Abundance",59,0.340909090909349,1,0.559,"Kruskal-Wallis",0.61910752688172
"138","Agrococcus","Abundance",59,0.340909090909349,1,0.559,"Kruskal-Wallis",0.61910752688172
"139","Alishewanella","Abundance",59,0.340909090909349,1,0.559,"Kruskal-Wallis",0.61910752688172
"140","Anaerococcus","Abundance",59,0.340909090909349,1,0.559,"Kruskal-Wallis",0.61910752688172
"141","Anoxybacillus","Abundance",59,0.340909090909349,1,0.559,"Kruskal-Wallis",0.61910752688172
"142","Bacillus","Abundance",59,0.340909090909349,1,0.559,"Kruskal-Wallis",0.61910752688172
"143","Blastocatella","Abundance",59,0.340909090909349,1,0.559,"Kruskal-Wallis",0.61910752688172
"144","CAG-56","Abundance",59,0.340909090909349,1,0.559,"Kruskal-Wallis",0.61910752688172
"145","Candidatus_Soleaferrea","Abundance",59,0.340909090909349,1,0.559,"Kruskal-Wallis",0.61910752688172
"146","Candidatus_Stoquefichus","Abundance",59,0.340909090909349,1,0.559,"Kruskal-Wallis",0.61910752688172
"147","Cellulosilyticum","Abundance",59,0.340909090909349,1,0.559,"Kruskal-Wallis",0.61910752688172
"148","Cloacibacillus","Abundance",59,0.340909090909349,1,0.559,"Kruskal-Wallis",0.61910752688172
"149","Coprobacillus","Abundance",59,0.340909090909349,1,0.559,"Kruskal-Wallis",0.61910752688172
"150","Defluviitaleaceae_UCG-011","Abundance",59,0.340909090909349,1,0.559,"Kruskal-Wallis",0.61910752688172
"151","DTU089","Abundance",59,0.340909090909349,1,0.559,"Kruskal-Wallis",0.61910752688172
"152","Eggerthia","Abundance",59,0.340909090909349,1,0.559,"Kruskal-Wallis",0.61910752688172
"153","Enterobacillus","Abundance",59,0.340909090909349,1,0.559,"Kruskal-Wallis",0.61910752688172
"154","Eubacterium","Abundance",59,0.340909090909349,1,0.559,"Kruskal-Wallis",0.61910752688172
"155","Faecalicoccus","Abundance",59,0.340909090909349,1,0.559,"Kruskal-Wallis",0.61910752688172
"156","Fastidiosipila","Abundance",59,0.340909090909349,1,0.559,"Kruskal-Wallis",0.61910752688172
"157","Gallicola","Abundance",59,0.340909090909349,1,0.559,"Kruskal-Wallis",0.61910752688172
"158","Herminiimonas","Abundance",59,0.340909090909349,1,0.559,"Kruskal-Wallis",0.61910752688172
"159","Janthinobacterium","Abundance",59,0.340909090909349,1,0.559,"Kruskal-Wallis",0.61910752688172
"160","Lachnoanaerobaculum","Abundance",59,0.340909090909349,1,0.559,"Kruskal-Wallis",0.61910752688172
"161","Lachnospiraceae_NK4B4_group","Abundance",59,0.340909090909349,1,0.559,"Kruskal-Wallis",0.61910752688172
"162","Lachnospiraceae_UCG-003","Abundance",59,0.340909090909349,1,0.559,"Kruskal-Wallis",0.61910752688172
"163","Lactococcus","Abundance",59,0.340909090909349,1,0.559,"Kruskal-Wallis",0.61910752688172
"164","Leptotrichia","Abundance",59,0.340909090909349,1,0.559,"Kruskal-Wallis",0.61910752688172
"165","Leuconostoc","Abundance",59,0.340909090909349,1,0.559,"Kruskal-Wallis",0.61910752688172
"166","Massilia","Abundance",59,0.340909090909349,1,0.559,"Kruskal-Wallis",0.61910752688172
"167","Megamonas","Abundance",59,0.340909090909349,1,0.559,"Kruskal-Wallis",0.61910752688172
"168","Microbacterium","Abundance",59,0.340909090909349,1,0.559,"Kruskal-Wallis",0.61910752688172
"169","Mitsuokella","Abundance",59,0.340909090909349,1,0.559,"Kruskal-Wallis",0.61910752688172
"170","Mobilitalea","Abundance",59,0.340909090909349,1,0.559,"Kruskal-Wallis",0.61910752688172
"171","Peptococcus","Abundance",59,0.340909090909349,1,0.559,"Kruskal-Wallis",0.61910752688172
"172","Peptoniphilus","Abundance",59,0.340909090909349,1,0.559,"Kruskal-Wallis",0.61910752688172
"173","Phocea","Abundance",59,0.340909090909349,1,0.559,"Kruskal-Wallis",0.61910752688172
"174","Prevotella_2","Abundance",59,0.340909090909349,1,0.559,"Kruskal-Wallis",0.61910752688172
"175","Prevotellaceae_NK3B31_group","Abundance",59,0.340909090909349,1,0.559,"Kruskal-Wallis",0.61910752688172
"176","Pseudogracilibacillus","Abundance",59,0.340909090909349,1,0.559,"Kruskal-Wallis",0.61910752688172
"177","Pyramidobacter","Abundance",59,0.340909090909349,1,0.559,"Kruskal-Wallis",0.61910752688172
"178","Rhodococcus","Abundance",59,0.340909090909349,1,0.559,"Kruskal-Wallis",0.61910752688172
"179","Rhodopseudomonas","Abundance",59,0.340909090909349,1,0.559,"Kruskal-Wallis",0.61910752688172
"180","Rikenellaceae_RC9_gut_group","Abundance",59,0.340909090909349,1,0.559,"Kruskal-Wallis",0.61910752688172
"181","Selenomonas","Abundance",59,0.340909090909349,1,0.559,"Kruskal-Wallis",0.61910752688172
"182","Sphingobium","Abundance",59,0.340909090909349,1,0.559,"Kruskal-Wallis",0.61910752688172
"183","Syntrophaceticus","Abundance",59,0.340909090909349,1,0.559,"Kruskal-Wallis",0.61910752688172
"184","Tetrasphaera","Abundance",59,0.340909090909349,1,0.559,"Kruskal-Wallis",0.61910752688172
"185","Variovorax","Abundance",59,0.340909090909349,1,0.559,"Kruskal-Wallis",0.61910752688172
"186","Victivallis","Abundance",59,0.340909090909349,1,0.559,"Kruskal-Wallis",0.61910752688172
"187","Flavonifractor","Abundance",59,0.231653174625576,1,0.63,"Kruskal-Wallis",0.694010695187166
"188","Corynebacterium_1","Abundance",59,0.215851806081213,1,0.642,"Kruskal-Wallis",0.703468085106383
"189","Burkholderia-Caballeronia-Paraburkholderia","Abundance",59,0.133802541544551,1,0.715,"Kruskal-Wallis",0.767135416666667
"190","GCA-900066575","Abundance",59,0.133802541544551,1,0.715,"Kruskal-Wallis",0.767135416666667
"191","Pseudocitrobacter","Abundance",59,0.133802541544551,1,0.715,"Kruskal-Wallis",0.767135416666667
"192","Rothia","Abundance",59,0.133802541544551,1,0.715,"Kruskal-Wallis",0.767135416666667
"193","Actinomyces","Abundance",59,0.105190413844288,1,0.746,"Kruskal-Wallis",0.791251282051282
"194","Neisseria","Abundance",59,0.102442570870093,1,0.749,"Kruskal-Wallis",0.791251282051282
"195","Stenotrophomonas","Abundance",59,0.102442570870093,1,0.749,"Kruskal-Wallis",0.791251282051282
"196","Solobacterium","Abundance",59,0.0831134134077614,1,0.773,"Kruskal-Wallis",0.812438775510204
"197","Azomonas","Abundance",59,0.0752639296186999,1,0.784,"Kruskal-Wallis",0.815676767676768
"198","Oxalobacter","Abundance",59,0.0752639296186999,1,0.784,"Kruskal-Wallis",0.815676767676768
"199","Romboutsia","Abundance",59,0.0636337071403459,1,0.801,"Kruskal-Wallis",0.829175879396985
"200","Staphylococcus","Abundance",59,0.0467512950417973,1,0.829,"Kruskal-Wallis",0.85387
"201","Faecalitalea","Abundance",59,0.0405891881573347,1,0.84,"Kruskal-Wallis",0.857653465346535
"202","Granulicatella","Abundance",59,0.0400431662159914,1,0.841,"Kruskal-Wallis",0.857653465346535
"203","Mogibacterium","Abundance",59,0.00638135198134618,1,0.936,"Kruskal-Wallis",0.940565853658537
"204","Pelomonas","Abundance",59,0.00638135198134618,1,0.936,"Kruskal-Wallis",0.940565853658537
"205","Porphyromonas","Abundance",59,0.00638135198134618,1,0.936,"Kruskal-Wallis",0.940565853658537
"206","Turicibacter","Abundance",59,0.00159533799533654,1,0.968,"Kruskal-Wallis",0.968
"207","Anaeroplasma","Abundance",59,NA,1,NA,"Kruskal-Wallis",NA
"208","Anaerosporobacter","Abundance",59,NA,1,NA,"Kruskal-Wallis",NA
"209","Catabacter","Abundance",59,NA,1,NA,"Kruskal-Wallis",NA
"210","Dechlorosoma","Abundance",59,NA,1,NA,"Kruskal-Wallis",NA
"211","Desulfovibrio","Abundance",59,NA,1,NA,"Kruskal-Wallis",NA
"212","Hafnia-Obesumbacterium","Abundance",59,NA,1,NA,"Kruskal-Wallis",NA
"213","Legionella","Abundance",59,NA,1,NA,"Kruskal-Wallis",NA
"214","Proteus","Abundance",59,NA,1,NA,"Kruskal-Wallis",NA
"215","Roseateles","Abundance",59,NA,1,NA,"Kruskal-Wallis",NA
"216","Ruminococcaceae_UCG-009","Abundance",59,NA,1,NA,"Kruskal-Wallis",NA
"217","Sphingopyxis","Abundance",59,NA,1,NA,"Kruskal-Wallis",NA
"218","Zoogloea","Abundance",59,NA,1,NA,"Kruskal-Wallis",NA
