"","taxon","log.max.pct","direction","lda","p.value","adjusted"
"1","Bacteria.Firmicutes.Clostridia.Clostridiales.Lachnospiraceae.Anaerostipes",4.4025845403,0,3.90100689321,"0.0310271076821",0.351077109608277
"2","Bacteria.Firmicutes.Negativicutes.Selenomonadales.Acidaminococcaceae.Phascolarctobacterium",3.94846792025,0,3.61187095797,"0.0403616069936",0.400156503622263
"3","Bacteria.Bacteroidetes",5.63249427326,0,5.10937757566,"0.00273130018747",0.0676972260751493
"4","Bacteria.Firmicutes.Clostridia.Clostridiales.Lachnospiraceae.Lachnospira",3.77149035096,0,3.5460176075,"0.0132683921014",0.222739618355976
"5","Bacteria.Proteobacteria.Gammaproteobacteria.Enterobacteriales",5.46501706908,1,5.10944616524,"0.00167618817364",0.0676972260751493
"6","Bacteria.Bacteroidetes.Bacteroidia.Bacteroidales.Rikenellaceae",3.59634933146,0,3.72322064336,"0.0313642374578",0.351077109608277
"7","Bacteria.Proteobacteria",5.54816890366,1,5.16981051869,"0.0011954705598",0.0676972260751493
"8","Bacteria.Firmicutes.Erysipelotrichia.Erysipelotrichales.Erysipelotrichaceae.Erysipelotrichaceae_UCG_003",4.39840076493,0,4.06138334088,"0.0176290235422",0.278057780415609
"9","Bacteria.Proteobacteria.Gammaproteobacteria.Enterobacteriales.Enterobacteriaceae.Morganella",4.30521600957,1,4.01821381423,"0.0134799192665",0.222739618355976
"10","Bacteria.Firmicutes.Clostridia.Clostridiales.Lachnospiraceae.Roseburia",4.5384676162,0,4.1316603091,"0.0187155763176",0.282361086182922
"11","Bacteria.Bacteroidetes.Bacteroidia.Bacteroidales.Barnesiellaceae",3.99475249222,0,3.53562439418,"0.0232592122143",0.322837865534484
"12","Bacteria.Proteobacteria.Gammaproteobacteria.Enterobacteriales.Enterobacteriaceae.Klebsiella",4.73667627726,1,4.44791203031,"0.0134147634807",0.222739618355976
"13","Bacteria.Proteobacteria.Gammaproteobacteria",5.54783690232,1,5.16951841912,"0.00122529542527",0.0676972260751493
"14","Bacteria.Epsilonbacteraeota",3.25737236637,1,4.33226171362,"0.0478147448283",0.425428627062054
"15","Bacteria.Proteobacteria.Gammaproteobacteria.Enterobacteriales.Enterobacteriaceae",5.46501706908,1,5.10944616524,"0.00167618817364",0.0676972260751493
"16","Bacteria.Firmicutes.Clostridia.Clostridiales.Lachnospiraceae.Lachnoclostridium",4.31819831095,0,3.92138306193,"0.0432822091072",0.417192404449956
"17","Bacteria.Bacteroidetes.Bacteroidia.Bacteroidales",5.6323780668,0,5.11473493482,"0.00267222836344",0.0676972260751493
"18","Bacteria.Firmicutes.Bacilli.Lactobacillales.Enterococcaceae",4.10535122043,1,4.54234908809,"0.000331361896262",0.057491289001457
"19","Bacteria.Bacteroidetes.Bacteroidia.Bacteroidales.Tannerellaceae.Parabacteroides",4.1606158931,0,4.07671905484,"0.00261528216576",0.0676972260751493
"20","Bacteria.Bacteroidetes.Bacteroidia.Bacteroidales.Tannerellaceae",4.1606158931,0,4.07666154161,"0.00261528216576",0.0676972260751493
"21","Bacteria.Proteobacteria.Gammaproteobacteria.Betaproteobacteriales.Burkholderiaceae.Ralstonia",3.46537582162,1,3.66115086438,"0.0250870634439",0.325299172419043
"22","Bacteria.Bacteroidetes.Bacteroidia",5.63249427326,0,5.10937757566,"0.00273130018747",0.0676972260751493
"23","Bacteria.Firmicutes.Clostridia.Clostridiales.Ruminococcaceae.Subdoligranulum",3.86589338171,0,3.43576469273,"0.0342997319076",0.371937717873038
"24","Bacteria.Bacteroidetes.Bacteroidia.Bacteroidales.Rikenellaceae.Alistipes",3.59004877215,0,3.72395232248,"0.0313642374578",0.351077109608277
"25","Bacteria.Epsilonbacteraeota.Campylobacteria",3.25737236637,1,4.20691430195,"0.0478147448283",0.425428627062054
"26","Bacteria.Firmicutes.Bacilli.Lactobacillales.Enterococcaceae.Enterococcus",4.10535122043,1,4.53681188175,"0.000331361896262",0.057491289001457
"27","Bacteria.Epsilonbacteraeota.Campylobacteria.Campylobacterales",3.25737236637,1,4.19429610128,"0.0478147448283",0.425428627062054
