"","taxon","log.max.pct","direction","lda","p.value","adjusted"
"1","Bacteria.Firmicutes.Clostridia.Clostridiales.Lachnospiraceae.Anaerostipes",4.60169322605,"non-IBD",4.18866879903,"0.017483929924",0.252788486817833
"2","Bacteria.Actinobacteria.Actinobacteria.Micrococcales.Micrococcaceae.Rothia",2.83552744268,"UC",3.60095449228,"0.0170059539961",0.252788486817833
"3","Bacteria.Firmicutes.Clostridia.Clostridiales.Lachnospiraceae.Coprococcus_3",3.45174262661,"non-IBD",3.16540990938,"0.0285394876946",0.300097037273521
"4","Bacteria.Firmicutes.Clostridia.Clostridiales.Lachnospiraceae.Coprococcus_1",3.60463221743,"non-IBD",3.3034048231,"0.0199813388949",0.269934567642946
"5","Bacteria.Firmicutes.Clostridia.Clostridiales.Ruminococcaceae.Ruminococcus_1",3.46424443624,"non-IBD",3.32143437957,"0.00122116788445",0.0679009359023371
"6","Bacteria.Firmicutes.Clostridia.Clostridiales.Ruminococcaceae.Ruminococcus_2",3.58408567679,"non-IBD",3.35353064077,"0.0367770249916",0.354489657557922
"7","Bacteria.Firmicutes.Clostridia.Clostridiales.Peptostreptococcaceae.Intestinibacter",3.33882744774,"UC",3.19015352729,"0.0260453925723",0.300097037273521
"8","Bacteria.Firmicutes.Clostridia.Clostridiales.Lachnospiraceae.Lachnospiraceae_ND3007_group",3.32075972653,"non-IBD",3.18075212225,"0.00648968475333",0.140745038087844
"9","Bacteria.Bacteroidetes.Bacteroidia.Bacteroidales.Rikenellaceae",3.6745266894,"non-IBD",3.54969653049,"0.000199759126049",0.0202602986793915
"10","Bacteria.Firmicutes.Clostridia.Clostridiales.Christensenellaceae",3.9202369379,"CD",3.74476464048,"0.0044179660076",0.109502443188371
"11","Bacteria.Actinobacteria.Actinobacteria.Micrococcales.Micrococcaceae",2.83552744268,"UC",3.63823913246,"0.0170059539961",0.252788486817833
"12","Bacteria.Firmicutes.Clostridia.Clostridiales.Lachnospiraceae.Blautia",4.84591430393,"non-IBD",4.26266666136,"0.0225775709215",0.270152314129672
"13","Bacteria.Bacteroidetes.Bacteroidia.Bacteroidales.Barnesiellaceae",4.2544768341,"non-IBD",3.99400178816,"9.03667410194e-06",0.00313572591337318
"14","Bacteria.Firmicutes.Clostridia.Clostridiales.Lachnospiraceae",5.44719132382,"non-IBD",4.83024750138,"0.00136975951388",0.0679009359023371
"15","Bacteria.Firmicutes.Clostridia.Clostridiales.Lachnospiraceae.Tyzzerella",4.0987223978,"non-IBD",3.59758929223,"0.00836112630436",0.17066534280076
"16","Bacteria.Firmicutes.Negativicutes.Selenomonadales.Veillonellaceae",4.4273662197,"CD",3.99022730171,"0.0345324662524",0.342364736845223
"17","Bacteria.Actinobacteria.Actinobacteria",3.60349154486,"UC",3.41204322052,"0.0481560752635",0.439741003064066
"18","Bacteria.Firmicutes.Clostridia.Clostridiales.Ruminococcaceae.Ruminococcaceae_UCG_005",3.65277522778,"non-IBD",3.45607090931,"0.0202256448378",0.269934567642946
"19","Bacteria.Firmicutes.Clostridia.Clostridiales.Ruminococcaceae.Ruminococcaceae_UCG_003",3.51549087014,"non-IBD",3.16011758008,"0.0378463317051",0.354937218964046
"20","Bacteria.Bacteroidetes.Bacteroidia.Bacteroidales.Marinifilaceae",3.57500777801,"non-IBD",3.45534967235,"0.00250214513475",0.100113693445553
"21","Bacteria.Firmicutes.Bacilli.Lactobacillales.Enterococcaceae",3.74964883789,"CD",3.67860957837,"0.0223112212413",0.270152314129672
"22","Bacteria.Bacteroidetes.Bacteroidia.Bacteroidales.Barnesiellaceae.Coprobacter",3.51857680823,"non-IBD",3.46955380682,"0.00346214501829",0.100113693445553
"23","Bacteria.Firmicutes.Bacilli",4.75052970209,"CD",4.38820770533,"0.00973576250467",0.187683866062249
"24","Bacteria.Firmicutes.Clostridia.Clostridiales.Ruminococcaceae.Ruminiclostridium_6",3.33800263794,"non-IBD",3.47285614773,"0.00646353936493",0.140745038087844
"25","Bacteria.Firmicutes.Clostridia.Clostridiales.Ruminococcaceae.Ruminiclostridium_5",3.80181092455,"non-IBD",3.27072661428,"0.0329549303956",0.336334142566859
"26","Bacteria.Firmicutes.Clostridia.Clostridiales",5.65793795678,"non-IBD",5.00329117459,"0.00306191005233",0.100113693445553
"27","Bacteria.Firmicutes.Clostridia.Clostridiales.Christensenellaceae.Christensenellaceae_R_7_group",3.9202369379,"CD",3.7356221246,"0.0044179660076",0.109502443188371
"28","Bacteria.Proteobacteria.Gammaproteobacteria.Betaproteobacteriales.Burkholderiaceae.Ralstonia",3.22624090505,"CD",3.10637846866,"0.015002270361",0.247894657869857
"29","Bacteria.Firmicutes.Clostridia.Clostridiales.Lachnospiraceae.Lachnospiraceae_NK4A136_group",4.12553288187,"non-IBD",3.73729898996,"0.00102307072832",0.0679009359023371
"30","Bacteria.Bacteroidetes.Bacteroidia.Bacteroidales.Barnesiellaceae.Barnesiella",4.16632869681,"non-IBD",3.93915660723,"3.30603504999e-05",0.00573597081173265
"31","Bacteria.Firmicutes.Clostridia.Clostridiales.Ruminococcaceae.Subdoligranulum",3.85057659369,"non-IBD",3.3015882841,"0.0278438519549",0.300097037273521
"32","Bacteria.Firmicutes.Bacilli.Lactobacillales",4.72669057766,"CD",4.35937218345,"0.0111498037342",0.203630626093021
"33","Bacteria.Bacteroidetes.Bacteroidia.Bacteroidales.Marinifilaceae.Odoribacter",3.52747395375,"non-IBD",3.42685176265,"0.0031950063291",0.100113693445553
"34","Bacteria.Bacteroidetes.Bacteroidia.Bacteroidales.Rikenellaceae.Alistipes",3.6648409996,"non-IBD",3.53048290507,"0.000233548111578",0.0202602986793915
"35","Bacteria.Firmicutes.Clostridia",5.65793795678,"non-IBD",5.00318657218,"0.00306191005233",0.100113693445553
"36","Bacteria.Firmicutes.Bacilli.Lactobacillales.Enterococcaceae.Enterococcus",3.74964883789,"CD",3.69869906136,"0.0223112212413",0.270152314129672
"37","Bacteria.Firmicutes.Clostridia.Clostridiales.Lachnospiraceae.Marvinbryantia",2.96647802031,"non-IBD",3.31359147443,"0.0279593439212",0.300097037273521
"38","Bacteria.Actinobacteria",3.67335341619,"UC",3.43747882798,"0.0118139235962",0.20497157439407
